\relax 
\providecommand\hyper@newdestlabel[2]{}
\providecommand\HyperFirstAtBeginDocument{\AtBeginDocument}
\HyperFirstAtBeginDocument{\ifx\hyper@anchor\@undefined
\global\let\oldcontentsline\contentsline
\gdef\contentsline#1#2#3#4{\oldcontentsline{#1}{#2}{#3}}
\global\let\oldnewlabel\newlabel
\gdef\newlabel#1#2{\newlabelxx{#1}#2}
\gdef\newlabelxx#1#2#3#4#5#6{\oldnewlabel{#1}{{#2}{#3}}}
\AtEndDocument{\ifx\hyper@anchor\@undefined
\let\contentsline\oldcontentsline
\let\newlabel\oldnewlabel
\fi}
\fi}
\global\let\hyper@last\relax 
\gdef\HyperFirstAtBeginDocument#1{#1}
\providecommand\HyField@AuxAddToFields[1]{}
\providecommand\HyField@AuxAddToCoFields[2]{}
\@writefile{nav}{\headcommand {\slideentry {0}{0}{1}{1/1}{}{0}}}
\@writefile{nav}{\headcommand {\beamer@framepages {1}{1}}}
\newlabel{Table of content<1>}{{2}{2}{}{Doc-Start}{}}
\@writefile{snm}{\beamer@slide {Table of content<1>}{2}}
\newlabel{Table of content}{{2}{2}{}{Doc-Start}{}}
\@writefile{snm}{\beamer@slide {Table of content}{2}}
\@writefile{nav}{\headcommand {\slideentry {0}{0}{2}{2/2}{}{0}}}
\@writefile{nav}{\headcommand {\beamer@framepages {2}{2}}}
\@writefile{toc}{\beamer@sectionintoc {1}{Introduction}{3}{0}{1}}
\@writefile{nav}{\headcommand {\beamer@sectionpages {1}{2}}}
\@writefile{nav}{\headcommand {\beamer@subsectionpages {1}{2}}}
\@writefile{nav}{\headcommand {\sectionentry {1}{Introduction}{3}{Introduction}{0}}}
\newlabel{sec:Introduction}{{1}{3}{Introduction}{Doc-Start}{}}
\@writefile{snm}{\beamer@slide {sec:Introduction}{3}}
\@writefile{toc}{\beamer@subsectionintoc {1}{1}{Top Tagging}{3}{0}{1}}
\@writefile{nav}{\headcommand {\beamer@subsectionpages {3}{2}}}
\@writefile{nav}{\headcommand {\beamer@subsectionentry {0}{1}{1}{3}{Top Tagging}}}
\newlabel{sec:Top Tagging}{{1}{3}{Top Tagging}{Doc-Start}{}}
\@writefile{snm}{\beamer@slide {sec:Top Tagging}{3}}
\newlabel{fig:xoneqcdpng}{{3}{3}{Top Tagging}{Doc-Start}{}}
\@writefile{snm}{\beamer@slide {fig:xoneqcdpng}{3}}
\@writefile{nav}{\headcommand {\slideentry {1}{1}{1}{3/3}{Top Tagging}{0}}}
\@writefile{nav}{\headcommand {\beamer@framepages {3}{3}}}
\newlabel{new Physics at the LHC<1>}{{4}{4}{Top Tagging}{Doc-Start}{}}
\@writefile{snm}{\beamer@slide {new Physics at the LHC<1>}{4}}
\newlabel{new Physics at the LHC}{{4}{4}{Top Tagging}{Doc-Start}{}}
\@writefile{snm}{\beamer@slide {new Physics at the LHC}{4}}
\@writefile{nav}{\headcommand {\slideentry {1}{1}{2}{4/4}{Top Tagging}{0}}}
\@writefile{nav}{\headcommand {\beamer@framepages {4}{4}}}
\newlabel{fig:ttot}{{5}{5}{Top Tagging}{Doc-Start}{}}
\@writefile{snm}{\beamer@slide {fig:ttot}{5}}
\@writefile{nav}{\headcommand {\slideentry {1}{1}{3}{5/5}{Top Tagging}{0}}}
\@writefile{nav}{\headcommand {\beamer@framepages {5}{5}}}
\@writefile{nav}{\headcommand {\slideentry {1}{1}{4}{6/6}{Top Tagging}{0}}}
\@writefile{nav}{\headcommand {\beamer@framepages {6}{6}}}
\@writefile{toc}{\beamer@subsectionintoc {1}{2}{Neuronal Networks}{7}{0}{1}}
\@writefile{nav}{\headcommand {\beamer@subsectionpages {3}{6}}}
\@writefile{nav}{\headcommand {\beamer@subsectionentry {0}{1}{2}{7}{Neuronal Networks}}}
\newlabel{sec:Neuronal Networks}{{2}{7}{Neuronal Networks}{Doc-Start}{}}
\@writefile{snm}{\beamer@slide {sec:Neuronal Networks}{7}}
\newlabel{fig:q02imgswithout_fitpdf}{{7}{7}{Neuronal Networks}{Doc-Start}{}}
\@writefile{snm}{\beamer@slide {fig:q02imgswithout_fitpdf}{7}}
\@writefile{nav}{\headcommand {\slideentry {1}{2}{1}{7/7}{Neuronal Networks}{0}}}
\@writefile{nav}{\headcommand {\beamer@framepages {7}{7}}}
\newlabel{fig:q02imgslinearpdf}{{8}{8}{Neuronal Networks}{Doc-Start}{}}
\@writefile{snm}{\beamer@slide {fig:q02imgslinearpdf}{8}}
\@writefile{nav}{\headcommand {\slideentry {1}{2}{2}{8/8}{Neuronal Networks}{0}}}
\@writefile{nav}{\headcommand {\beamer@framepages {8}{8}}}
\newlabel{fig:qnnpicsrsimple_neuronal_netpng}{{9}{9}{Neuronal Networks}{Doc-Start}{}}
\@writefile{snm}{\beamer@slide {fig:qnnpicsrsimple_neuronal_netpng}{9}}
\@writefile{nav}{\headcommand {\slideentry {1}{2}{3}{9/9}{Neuronal Networks}{0}}}
\@writefile{nav}{\headcommand {\beamer@framepages {9}{9}}}
\newlabel{fig:q02imgsneuronal_networkpdf}{{10}{10}{Neuronal Networks}{Doc-Start}{}}
\@writefile{snm}{\beamer@slide {fig:q02imgsneuronal_networkpdf}{10}}
\@writefile{nav}{\headcommand {\slideentry {1}{2}{4}{10/10}{Neuronal Networks}{0}}}
\@writefile{nav}{\headcommand {\beamer@framepages {10}{10}}}
\@writefile{toc}{\beamer@subsectionintoc {1}{3}{Autoencoder}{11}{0}{1}}
\@writefile{nav}{\headcommand {\beamer@subsectionpages {7}{10}}}
\@writefile{nav}{\headcommand {\beamer@subsectionentry {0}{1}{3}{11}{Autoencoder}}}
\newlabel{sec:Autoencoder}{{3}{11}{Autoencoder}{Doc-Start}{}}
\@writefile{snm}{\beamer@slide {sec:Autoencoder}{11}}
\newlabel{fig:qnnpicsrsimple_autoencoderpng}{{11}{11}{Autoencoder}{Doc-Start}{}}
\@writefile{snm}{\beamer@slide {fig:qnnpicsrsimple_autoencoderpng}{11}}
\@writefile{nav}{\headcommand {\slideentry {1}{3}{1}{11/11}{Autoencoder}{0}}}
\@writefile{nav}{\headcommand {\beamer@framepages {11}{11}}}
\newlabel{fig:q02imgsauto_encoderpdf}{{12}{12}{Autoencoder}{Doc-Start}{}}
\@writefile{snm}{\beamer@slide {fig:q02imgsauto_encoderpdf}{12}}
\@writefile{nav}{\headcommand {\slideentry {1}{3}{2}{12/12}{Autoencoder}{0}}}
\@writefile{nav}{\headcommand {\beamer@framepages {12}{12}}}
\newlabel{fig:compare}{{13}{13}{Autoencoder}{Doc-Start}{}}
\@writefile{snm}{\beamer@slide {fig:compare}{13}}
\@writefile{nav}{\headcommand {\slideentry {1}{3}{3}{13/13}{Autoencoder}{0}}}
\@writefile{nav}{\headcommand {\beamer@framepages {13}{13}}}
\newlabel{fig:xrecqualpng}{{14}{14}{Autoencoder}{Doc-Start}{}}
\@writefile{snm}{\beamer@slide {fig:xrecqualpng}{14}}
\@writefile{nav}{\headcommand {\slideentry {1}{3}{4}{14/14}{Autoencoder}{0}}}
\@writefile{nav}{\headcommand {\beamer@framepages {14}{14}}}
\@writefile{nav}{\headcommand {\slideentry {1}{3}{5}{15/15}{Autoencoder}{0}}}
\@writefile{nav}{\headcommand {\beamer@framepages {15}{15}}}
\@writefile{toc}{\beamer@subsectionintoc {1}{4}{Graphs}{16}{0}{1}}
\@writefile{nav}{\headcommand {\beamer@subsectionpages {11}{15}}}
\@writefile{nav}{\headcommand {\beamer@subsectionentry {0}{1}{4}{16}{Graphs}}}
\newlabel{sec:Graphs}{{4}{16}{Graphs}{Doc-Start}{}}
\@writefile{snm}{\beamer@slide {sec:Graphs}{16}}
\newlabel{fig:dia3}{{1}{16}{Graphs}{Doc-Start}{}}
\@writefile{snm}{\beamer@slide {fig:dia3}{16}}
\@writefile{nav}{\headcommand {\slideentry {1}{4}{1}{16/16}{Graphs}{0}}}
\@writefile{nav}{\headcommand {\beamer@framepages {16}{16}}}
\@writefile{nav}{\headcommand {\slideentry {1}{4}{2}{17/17}{Graphs}{0}}}
\@writefile{nav}{\headcommand {\beamer@framepages {17}{17}}}
\newlabel{fig:dia7}{{2}{18}{Graphs}{Doc-Start}{}}
\@writefile{snm}{\beamer@slide {fig:dia7}{18}}
\newlabel{fig:dia8}{{3}{18}{Graphs}{Doc-Start}{}}
\@writefile{snm}{\beamer@slide {fig:dia8}{18}}
\@writefile{nav}{\headcommand {\slideentry {1}{4}{3}{18/18}{Graphs}{0}}}
\@writefile{nav}{\headcommand {\beamer@framepages {18}{18}}}
\newlabel{Why Graph Networks?<1>}{{19}{19}{Graphs}{Doc-Start}{}}
\@writefile{snm}{\beamer@slide {Why Graph Networks?<1>}{19}}
\newlabel{Why Graph Networks?}{{19}{19}{Graphs}{Doc-Start}{}}
\@writefile{snm}{\beamer@slide {Why Graph Networks?}{19}}
\@writefile{nav}{\headcommand {\slideentry {1}{4}{4}{19/19}{Graphs}{0}}}
\@writefile{nav}{\headcommand {\beamer@framepages {19}{19}}}
\newlabel{Why Graph Networks?<1>}{{20}{20}{Graphs}{Doc-Start}{}}
\@writefile{snm}{\beamer@slide {Why Graph Networks?<1>}{20}}
\newlabel{Why Graph Networks?}{{20}{20}{Graphs}{Doc-Start}{}}
\@writefile{snm}{\beamer@slide {Why Graph Networks?}{20}}
\@writefile{nav}{\headcommand {\slideentry {1}{4}{5}{20/20}{Graphs}{0}}}
\@writefile{nav}{\headcommand {\beamer@framepages {20}{20}}}
\@writefile{toc}{\beamer@subsectionintoc {1}{5}{Graph Autoencoder}{21}{0}{1}}
\@writefile{nav}{\headcommand {\beamer@subsectionpages {16}{20}}}
\@writefile{nav}{\headcommand {\beamer@subsectionentry {0}{1}{5}{21}{Graph Autoencoder}}}
\newlabel{sec:Graph Autoencoder}{{5}{21}{Graph Autoencoder}{Doc-Start}{}}
\@writefile{snm}{\beamer@slide {sec:Graph Autoencoder}{21}}
\@writefile{nav}{\headcommand {\slideentry {1}{5}{1}{21/21}{Graph Autoencoder}{0}}}
\@writefile{nav}{\headcommand {\beamer@framepages {21}{21}}}
\newlabel{from a big graph to a small graph<1>}{{22}{22}{Graph Autoencoder}{Doc-Start}{}}
\@writefile{snm}{\beamer@slide {from a big graph to a small graph<1>}{22}}
\newlabel{from a big graph to a small graph}{{22}{22}{Graph Autoencoder}{Doc-Start}{}}
\@writefile{snm}{\beamer@slide {from a big graph to a small graph}{22}}
\@writefile{nav}{\headcommand {\slideentry {1}{5}{2}{22/22}{Graph Autoencoder}{0}}}
\@writefile{nav}{\headcommand {\beamer@framepages {22}{22}}}
\newlabel{fig:xdenseencodepng}{{23}{23}{Graph Autoencoder}{Doc-Start}{}}
\@writefile{snm}{\beamer@slide {fig:xdenseencodepng}{23}}
\newlabel{fig:xgraphencodepng}{{23}{23}{Graph Autoencoder}{Doc-Start}{}}
\@writefile{snm}{\beamer@slide {fig:xgraphencodepng}{23}}
\@writefile{nav}{\headcommand {\slideentry {1}{5}{3}{23/23}{Graph Autoencoder}{0}}}
\@writefile{nav}{\headcommand {\beamer@framepages {23}{23}}}
\newlabel{from a big graph to a small graph<1>}{{24}{24}{Graph Autoencoder}{Doc-Start}{}}
\@writefile{snm}{\beamer@slide {from a big graph to a small graph<1>}{24}}
\newlabel{from a big graph to a small graph}{{24}{24}{Graph Autoencoder}{Doc-Start}{}}
\@writefile{snm}{\beamer@slide {from a big graph to a small graph}{24}}
\newlabel{fig:abiaa}{{24}{24}{Graph Autoencoder}{Doc-Start}{}}
\@writefile{snm}{\beamer@slide {fig:abiaa}{24}}
\@writefile{nav}{\headcommand {\slideentry {1}{5}{4}{24/24}{Graph Autoencoder}{0}}}
\@writefile{nav}{\headcommand {\beamer@framepages {24}{24}}}
\newlabel{from a small graph to a big graph<1>}{{25}{25}{Graph Autoencoder}{Doc-Start}{}}
\@writefile{snm}{\beamer@slide {from a small graph to a big graph<1>}{25}}
\newlabel{from a small graph to a big graph}{{25}{25}{Graph Autoencoder}{Doc-Start}{}}
\@writefile{snm}{\beamer@slide {from a small graph to a big graph}{25}}
\newlabel{fig:abibb}{{25}{25}{Graph Autoencoder}{Doc-Start}{}}
\@writefile{snm}{\beamer@slide {fig:abibb}{25}}
\@writefile{nav}{\headcommand {\slideentry {1}{5}{5}{25/25}{Graph Autoencoder}{0}}}
\@writefile{nav}{\headcommand {\beamer@framepages {25}{25}}}
\@writefile{toc}{\beamer@sectionintoc {2}{Problems}{26}{0}{2}}
\@writefile{nav}{\headcommand {\beamer@sectionpages {3}{25}}}
\@writefile{nav}{\headcommand {\beamer@subsectionpages {21}{25}}}
\@writefile{nav}{\headcommand {\sectionentry {2}{Problems}{26}{Problems}{0}}}
\newlabel{sec:Problems}{{2}{26}{Problems}{Doc-Start}{}}
\@writefile{snm}{\beamer@slide {sec:Problems}{26}}
\@writefile{toc}{\beamer@subsectionintoc {2}{1}{For few Particles}{26}{0}{2}}
\@writefile{nav}{\headcommand {\beamer@subsectionpages {26}{25}}}
\@writefile{nav}{\headcommand {\beamer@subsectionentry {0}{2}{1}{26}{For few Particles}}}
\newlabel{sec:For few Particles}{{1}{26}{For few Particles}{Doc-Start}{}}
\@writefile{snm}{\beamer@slide {sec:For few Particles}{26}}
\newlabel{Does it actually Autoencode?<1>}{{26}{26}{For few Particles}{Doc-Start}{}}
\@writefile{snm}{\beamer@slide {Does it actually Autoencode?<1>}{26}}
\newlabel{Does it actually Autoencode?}{{26}{26}{For few Particles}{Doc-Start}{}}
\@writefile{snm}{\beamer@slide {Does it actually Autoencode?}{26}}
\newlabel{fig:history4}{{4}{26}{For few Particles}{Doc-Start}{}}
\@writefile{snm}{\beamer@slide {fig:history4}{26}}
\newlabel{fig:reloss}{{5}{26}{For few Particles}{Doc-Start}{}}
\@writefile{snm}{\beamer@slide {fig:reloss}{26}}
\@writefile{nav}{\headcommand {\slideentry {2}{1}{1}{26/26}{For few Particles}{0}}}
\@writefile{nav}{\headcommand {\beamer@framepages {26}{26}}}
\newlabel{Can you classify with it?<1>}{{27}{27}{For few Particles}{Doc-Start}{}}
\@writefile{snm}{\beamer@slide {Can you classify with it?<1>}{27}}
\newlabel{Can you classify with it?}{{27}{27}{For few Particles}{Doc-Start}{}}
\@writefile{snm}{\beamer@slide {Can you classify with it?}{27}}
\newlabel{fig:lowcompare}{{27}{27}{For few Particles}{Doc-Start}{}}
\@writefile{snm}{\beamer@slide {fig:lowcompare}{27}}
\@writefile{nav}{\headcommand {\slideentry {2}{1}{2}{27/27}{For few Particles}{0}}}
\@writefile{nav}{\headcommand {\beamer@framepages {27}{27}}}
\@writefile{toc}{\beamer@subsectionintoc {2}{2}{Scaling}{28}{0}{2}}
\@writefile{nav}{\headcommand {\beamer@subsectionpages {26}{27}}}
\@writefile{nav}{\headcommand {\beamer@subsectionentry {0}{2}{2}{28}{Scaling}}}
\newlabel{sec:Scaling}{{2}{28}{Scaling}{Doc-Start}{}}
\@writefile{snm}{\beamer@slide {sec:Scaling}{28}}
\newlabel{fig:lowscale}{{28}{28}{Scaling}{Doc-Start}{}}
\@writefile{snm}{\beamer@slide {fig:lowscale}{28}}
\@writefile{nav}{\headcommand {\slideentry {2}{2}{1}{28/28}{Scaling}{0}}}
\@writefile{nav}{\headcommand {\beamer@framepages {28}{28}}}
\newlabel{fig:trivscale}{{29}{29}{Scaling}{Doc-Start}{}}
\@writefile{snm}{\beamer@slide {fig:trivscale}{29}}
\@writefile{nav}{\headcommand {\slideentry {2}{2}{2}{29/29}{Scaling}{0}}}
\@writefile{nav}{\headcommand {\beamer@framepages {29}{29}}}
\newlabel{fig:compscale}{{30}{30}{Scaling}{Doc-Start}{}}
\@writefile{snm}{\beamer@slide {fig:compscale}{30}}
\@writefile{nav}{\headcommand {\slideentry {2}{2}{3}{30/30}{Scaling}{0}}}
\@writefile{nav}{\headcommand {\beamer@framepages {30}{30}}}
\newlabel{fig:compscale_zoom}{{31}{31}{Scaling}{Doc-Start}{}}
\@writefile{snm}{\beamer@slide {fig:compscale_zoom}{31}}
\@writefile{nav}{\headcommand {\slideentry {2}{2}{4}{31/31}{Scaling}{0}}}
\@writefile{nav}{\headcommand {\beamer@framepages {31}{31}}}
\newlabel{fig:splitscale}{{32}{32}{Scaling}{Doc-Start}{}}
\@writefile{snm}{\beamer@slide {fig:splitscale}{32}}
\@writefile{nav}{\headcommand {\slideentry {2}{2}{5}{32/32}{Scaling}{0}}}
\@writefile{nav}{\headcommand {\beamer@framepages {32}{32}}}
\@writefile{toc}{\beamer@subsectionintoc {2}{3}{Why does the Graph fall of?}{33}{0}{2}}
\@writefile{nav}{\headcommand {\beamer@subsectionpages {28}{32}}}
\@writefile{nav}{\headcommand {\beamer@subsectionentry {0}{2}{3}{33}{Why does the Graph fall of?}}}
\newlabel{sec:Why does the Graph fall of?}{{3}{33}{Why does the Graph fall of?}{Doc-Start}{}}
\@writefile{snm}{\beamer@slide {sec:Why does the Graph fall of?}{33}}
\newlabel{fig:dist1}{{33}{33}{Why does the Graph fall of?}{Doc-Start}{}}
\@writefile{snm}{\beamer@slide {fig:dist1}{33}}
\@writefile{nav}{\headcommand {\slideentry {2}{3}{1}{33/33}{Why does the Graph fall of?}{0}}}
\@writefile{nav}{\headcommand {\beamer@framepages {33}{33}}}
\newlabel{fig:adda}{{34}{34}{Why does the Graph fall of?}{Doc-Start}{}}
\@writefile{snm}{\beamer@slide {fig:adda}{34}}
\@writefile{nav}{\headcommand {\slideentry {2}{3}{2}{34/34}{Why does the Graph fall of?}{0}}}
\@writefile{nav}{\headcommand {\beamer@framepages {34}{34}}}
\newlabel{fig:abc}{{6}{35}{Why does the Graph fall of?}{Doc-Start}{}}
\@writefile{snm}{\beamer@slide {fig:abc}{35}}
\@writefile{nav}{\headcommand {\slideentry {2}{3}{3}{35/35}{Why does the Graph fall of?}{0}}}
\@writefile{nav}{\headcommand {\beamer@framepages {35}{35}}}
\@writefile{nav}{\headcommand {\slideentry {2}{3}{4}{36/36}{Why does the Graph fall of?}{0}}}
\@writefile{nav}{\headcommand {\beamer@framepages {36}{36}}}
\@writefile{nav}{\headcommand {\slideentry {2}{3}{5}{37/37}{Why does the Graph fall of?}{0}}}
\@writefile{nav}{\headcommand {\beamer@framepages {37}{37}}}
\newlabel{Why is that useful?<1>}{{38}{38}{Why does the Graph fall of?}{Doc-Start}{}}
\@writefile{snm}{\beamer@slide {Why is that useful?<1>}{38}}
\newlabel{Why is that useful?}{{38}{38}{Why does the Graph fall of?}{Doc-Start}{}}
\@writefile{snm}{\beamer@slide {Why is that useful?}{38}}
\@writefile{nav}{\headcommand {\slideentry {2}{3}{6}{38/38}{Why does the Graph fall of?}{0}}}
\@writefile{nav}{\headcommand {\beamer@framepages {38}{38}}}
\newlabel{fig:superscale}{{39}{39}{Why does the Graph fall of?}{Doc-Start}{}}
\@writefile{snm}{\beamer@slide {fig:superscale}{39}}
\@writefile{nav}{\headcommand {\slideentry {2}{3}{7}{39/39}{Why does the Graph fall of?}{0}}}
\@writefile{nav}{\headcommand {\beamer@framepages {39}{39}}}
\@writefile{nav}{\headcommand {\slideentry {2}{3}{8}{40/40}{Why does the Graph fall of?}{0}}}
\@writefile{nav}{\headcommand {\beamer@framepages {40}{40}}}
\newlabel{fig:auwei}{{41}{41}{Why does the Graph fall of?}{Doc-Start}{}}
\@writefile{snm}{\beamer@slide {fig:auwei}{41}}
\@writefile{nav}{\headcommand {\slideentry {2}{3}{9}{41/41}{Why does the Graph fall of?}{0}}}
\@writefile{nav}{\headcommand {\beamer@framepages {41}{41}}}
\newlabel{fig:auwei2}{{42}{42}{Why does the Graph fall of?}{Doc-Start}{}}
\@writefile{snm}{\beamer@slide {fig:auwei2}{42}}
\@writefile{nav}{\headcommand {\slideentry {2}{3}{10}{42/42}{Why does the Graph fall of?}{0}}}
\@writefile{nav}{\headcommand {\beamer@framepages {42}{42}}}
\@writefile{toc}{\beamer@subsectionintoc {2}{4}{Why is the trivial Model so good?}{43}{0}{2}}
\@writefile{nav}{\headcommand {\beamer@subsectionpages {33}{42}}}
\@writefile{nav}{\headcommand {\beamer@subsectionentry {0}{2}{4}{43}{Why is the trivial Model so good?}}}
\newlabel{sec:Why is the trivial Model so good?}{{4}{43}{Why is the trivial Model so good?}{Doc-Start}{}}
\@writefile{snm}{\beamer@slide {sec:Why is the trivial Model so good?}{43}}
\newlabel{fig:rmeanangle3}{{43}{43}{Why is the trivial Model so good?}{Doc-Start}{}}
\@writefile{snm}{\beamer@slide {fig:rmeanangle3}{43}}
\@writefile{nav}{\headcommand {\slideentry {2}{4}{1}{43/43}{Why is the trivial Model so good?}{0}}}
\@writefile{nav}{\headcommand {\beamer@framepages {43}{43}}}
\newlabel{fig:meanpt1}{{44}{44}{Why is the trivial Model so good?}{Doc-Start}{}}
\@writefile{snm}{\beamer@slide {fig:meanpt1}{44}}
\@writefile{nav}{\headcommand {\slideentry {2}{4}{2}{44/44}{Why is the trivial Model so good?}{0}}}
\@writefile{nav}{\headcommand {\beamer@framepages {44}{44}}}
\newlabel{fig:recinv}{{45}{45}{Why is the trivial Model so good?}{Doc-Start}{}}
\@writefile{snm}{\beamer@slide {fig:recinv}{45}}
\@writefile{nav}{\headcommand {\slideentry {2}{4}{3}{45/45}{Why is the trivial Model so good?}{0}}}
\@writefile{nav}{\headcommand {\beamer@framepages {45}{45}}}
\newlabel{fig:xqcdmappng}{{46}{46}{Why is the trivial Model so good?}{Doc-Start}{}}
\@writefile{snm}{\beamer@slide {fig:xqcdmappng}{46}}
\@writefile{nav}{\headcommand {\slideentry {2}{4}{4}{46/46}{Why is the trivial Model so good?}{0}}}
\@writefile{nav}{\headcommand {\beamer@framepages {46}{46}}}
\newlabel{fig:deltamap}{{47}{47}{Why is the trivial Model so good?}{Doc-Start}{}}
\@writefile{snm}{\beamer@slide {fig:deltamap}{47}}
\@writefile{nav}{\headcommand {\slideentry {2}{4}{5}{47/47}{Why is the trivial Model so good?}{0}}}
\@writefile{nav}{\headcommand {\beamer@framepages {47}{47}}}
\newlabel{fig:angularscale}{{48}{48}{Why is the trivial Model so good?}{Doc-Start}{}}
\@writefile{snm}{\beamer@slide {fig:angularscale}{48}}
\@writefile{nav}{\headcommand {\slideentry {2}{4}{6}{48/48}{Why is the trivial Model so good?}{0}}}
\@writefile{nav}{\headcommand {\beamer@framepages {48}{48}}}
\newlabel{fig:xqcdmappng}{{49}{49}{Why is the trivial Model so good?}{Doc-Start}{}}
\@writefile{snm}{\beamer@slide {fig:xqcdmappng}{49}}
\@writefile{nav}{\headcommand {\slideentry {2}{4}{7}{49/49}{Why is the trivial Model so good?}{0}}}
\@writefile{nav}{\headcommand {\beamer@framepages {49}{49}}}
\newlabel{fig:trivialptscale}{{50}{50}{Why is the trivial Model so good?}{Doc-Start}{}}
\@writefile{snm}{\beamer@slide {fig:trivialptscale}{50}}
\@writefile{nav}{\headcommand {\slideentry {2}{4}{8}{50/50}{Why is the trivial Model so good?}{0}}}
\@writefile{nav}{\headcommand {\beamer@framepages {50}{50}}}
\@writefile{nav}{\headcommand {\slideentry {2}{4}{9}{51/51}{Why is the trivial Model so good?}{0}}}
\@writefile{nav}{\headcommand {\beamer@framepages {51}{51}}}
\newlabel{fig:badmap}{{52}{52}{Why is the trivial Model so good?}{Doc-Start}{}}
\@writefile{snm}{\beamer@slide {fig:badmap}{52}}
\@writefile{nav}{\headcommand {\slideentry {2}{4}{10}{52/52}{Why is the trivial Model so good?}{0}}}
\@writefile{nav}{\headcommand {\beamer@framepages {52}{52}}}
\newlabel{fig:badmetrik}{{53}{53}{Why is the trivial Model so good?}{Doc-Start}{}}
\@writefile{snm}{\beamer@slide {fig:badmetrik}{53}}
\@writefile{nav}{\headcommand {\slideentry {2}{4}{11}{53/53}{Why is the trivial Model so good?}{0}}}
\@writefile{nav}{\headcommand {\beamer@framepages {53}{53}}}
\newlabel{How to solve this<1>}{{54}{54}{Why is the trivial Model so good?}{Doc-Start}{}}
\@writefile{snm}{\beamer@slide {How to solve this<1>}{54}}
\newlabel{How to solve this}{{54}{54}{Why is the trivial Model so good?}{Doc-Start}{}}
\@writefile{snm}{\beamer@slide {How to solve this}{54}}
\@writefile{nav}{\headcommand {\slideentry {2}{4}{12}{54/54}{Why is the trivial Model so good?}{0}}}
\@writefile{nav}{\headcommand {\beamer@framepages {54}{54}}}
\newlabel{fig:goodmap}{{55}{55}{Why is the trivial Model so good?}{Doc-Start}{}}
\@writefile{snm}{\beamer@slide {fig:goodmap}{55}}
\@writefile{nav}{\headcommand {\slideentry {2}{4}{13}{55/55}{Why is the trivial Model so good?}{0}}}
\@writefile{nav}{\headcommand {\beamer@framepages {55}{55}}}
\@writefile{toc}{\beamer@subsectionintoc {2}{5}{Whats Next}{56}{0}{2}}
\@writefile{nav}{\headcommand {\beamer@subsectionpages {43}{55}}}
\@writefile{nav}{\headcommand {\beamer@subsectionentry {0}{2}{5}{56}{Whats Next}}}
\newlabel{sec:Whats Next}{{5}{56}{Whats Next}{Doc-Start}{}}
\@writefile{snm}{\beamer@slide {sec:Whats Next}{56}}
\newlabel{fig:whatsnext}{{56}{56}{Whats Next}{Doc-Start}{}}
\@writefile{snm}{\beamer@slide {fig:whatsnext}{56}}
\@writefile{nav}{\headcommand {\slideentry {2}{5}{1}{56/56}{Whats Next}{0}}}
\@writefile{nav}{\headcommand {\beamer@framepages {56}{56}}}
\global\@namedef{mainendframenumber}{56}
\@writefile{nav}{\headcommand {\gdef \insertmainframenumber {56}}}
\@writefile{nav}{\headcommand {\partentry {Anhang}{1}}}
\@writefile{nav}{\headcommand {\beamer@partpages {1}{56}}}
\@writefile{nav}{\headcommand {\beamer@sectionpages {26}{56}}}
\@writefile{nav}{\headcommand {\beamer@subsectionpages {56}{56}}}
\@writefile{nav}{\headcommand {\beamer@appendixpages {57}}}
\@writefile{toc}{\beamer@sectionintoc {3}{Backup}{57}{1}{3}}
\@writefile{nav}{\headcommand {\beamer@sectionpages {57}{56}}}
\@writefile{nav}{\headcommand {\beamer@subsectionpages {57}{56}}}
\@writefile{nav}{\headcommand {\sectionentry {3}{Backup}{57}{Backup}{1}}}
\newlabel{sec:Backup}{{3}{57}{Backup}{Doc-Start}{}}
\@writefile{snm}{\beamer@slide {sec:Backup}{57}}
\@writefile{toc}{\beamer@subsectionintoc {3}{1}{Does it actually learn something?}{57}{1}{3}}
\@writefile{nav}{\headcommand {\beamer@subsectionpages {57}{56}}}
\@writefile{nav}{\headcommand {\beamer@subsectionentry {1}{3}{1}{57}{Does it actually learn something?}}}
\newlabel{sec:Does it actually learn something?}{{1}{57}{Does it actually learn something?}{Doc-Start}{}}
\@writefile{snm}{\beamer@slide {sec:Does it actually learn something?}{57}}
\newlabel{fig:history4}{{7}{57}{Does it actually learn something?}{Doc-Start}{}}
\@writefile{snm}{\beamer@slide {fig:history4}{57}}
\@writefile{nav}{\headcommand {\slideentry {3}{1}{1}{57/57}{Does it actually learn something?}{1}}}
\@writefile{nav}{\headcommand {\beamer@framepages {57}{57}}}
\newlabel{fig:batchhist4}{{8}{58}{Does it actually learn something?}{Doc-Start}{}}
\@writefile{snm}{\beamer@slide {fig:batchhist4}{58}}
\@writefile{nav}{\headcommand {\slideentry {3}{1}{2}{58/58}{Does it actually learn something?}{1}}}
\@writefile{nav}{\headcommand {\beamer@framepages {58}{58}}}
\@writefile{toc}{\beamer@subsectionintoc {3}{2}{auc by loss}{59}{1}{3}}
\@writefile{nav}{\headcommand {\beamer@subsectionpages {57}{58}}}
\@writefile{nav}{\headcommand {\beamer@subsectionentry {1}{3}{2}{59}{auc by loss}}}
\newlabel{sec:auc by loss}{{2}{59}{auc by loss}{Doc-Start}{}}
\@writefile{snm}{\beamer@slide {sec:auc by loss}{59}}
\newlabel{fig:aucbyloss}{{9}{59}{auc by loss}{Doc-Start}{}}
\@writefile{snm}{\beamer@slide {fig:aucbyloss}{59}}
\@writefile{nav}{\headcommand {\slideentry {3}{2}{1}{59/59}{auc by loss}{1}}}
\@writefile{nav}{\headcommand {\beamer@framepages {59}{59}}}
\newlabel{fig:lbalinear}{{10}{60}{auc by loss}{Doc-Start}{}}
\@writefile{snm}{\beamer@slide {fig:lbalinear}{60}}
\@writefile{nav}{\headcommand {\slideentry {3}{2}{2}{60/60}{auc by loss}{1}}}
\@writefile{nav}{\headcommand {\beamer@framepages {60}{60}}}
\newlabel{fig:lbaexp}{{11}{61}{auc by loss}{Doc-Start}{}}
\@writefile{snm}{\beamer@slide {fig:lbaexp}{61}}
\@writefile{nav}{\headcommand {\slideentry {3}{2}{3}{61/61}{auc by loss}{1}}}
\@writefile{nav}{\headcommand {\beamer@framepages {61}{61}}}
\newlabel{limits of c addition<1>}{{6}{62}{auc by loss}{Doc-Start}{}}
\@writefile{snm}{\beamer@slide {limits of c addition<1>}{62}}
\newlabel{limits of c addition}{{6}{62}{auc by loss}{Doc-Start}{}}
\@writefile{snm}{\beamer@slide {limits of c addition}{62}}
\newlabel{fig:trivialptscale}{{12}{62}{auc by loss}{Doc-Start}{}}
\@writefile{snm}{\beamer@slide {fig:trivialptscale}{62}}
\@writefile{nav}{\headcommand {\slideentry {3}{2}{4}{62/62}{auc by loss}{1}}}
\@writefile{nav}{\headcommand {\beamer@framepages {62}{62}}}
\@writefile{toc}{\beamer@subsectionintoc {3}{3}{Graphs over Dense}{63}{1}{3}}
\@writefile{nav}{\headcommand {\beamer@subsectionpages {59}{62}}}
\@writefile{nav}{\headcommand {\beamer@subsectionentry {1}{3}{3}{63}{Graphs over Dense}}}
\newlabel{sec:Graphs over Dense}{{3}{63}{Graphs over Dense}{Doc-Start}{}}
\@writefile{snm}{\beamer@slide {sec:Graphs over Dense}{63}}
\@writefile{nav}{\headcommand {\slideentry {3}{3}{1}{63/63}{Graphs over Dense}{1}}}
\@writefile{nav}{\headcommand {\beamer@framepages {63}{63}}}
\newlabel{fig:densescale}{{13}{64}{Graphs over Dense}{Doc-Start}{}}
\@writefile{snm}{\beamer@slide {fig:densescale}{64}}
\@writefile{nav}{\headcommand {\slideentry {3}{3}{2}{64/64}{Graphs over Dense}{1}}}
\@writefile{nav}{\headcommand {\beamer@framepages {64}{64}}}
\@writefile{toc}{\beamer@subsectionintoc {3}{4}{Potential of a working pt combination}{65}{1}{3}}
\@writefile{nav}{\headcommand {\beamer@subsectionpages {63}{64}}}
\@writefile{nav}{\headcommand {\beamer@subsectionentry {1}{3}{4}{65}{Potential of a working pt combination}}}
\newlabel{sec:Potential of a working pt combination}{{4}{65}{Potential of a working pt combination}{Doc-Start}{}}
\@writefile{snm}{\beamer@slide {sec:Potential of a working pt combination}{65}}
\@writefile{nav}{\headcommand {\slideentry {3}{4}{1}{65/65}{Potential of a working pt combination}{1}}}
\@writefile{nav}{\headcommand {\beamer@framepages {65}{65}}}
\@writefile{nav}{\headcommand {\beamer@partpages {57}{65}}}
\@writefile{nav}{\headcommand {\beamer@subsectionpages {65}{65}}}
\@writefile{nav}{\headcommand {\beamer@sectionpages {57}{65}}}
\@writefile{nav}{\headcommand {\beamer@documentpages {65}}}
\@writefile{nav}{\headcommand {\gdef \inserttotalframenumber {9}}}
\global\@namedef{appendixtotalframenumber}{9}
\global\@namedef{inserttotalframenumber}{56}
\@writefile{nav}{\headcommand {\gdef \inserttotalframenumber {56}}}
\@writefile{nav}{\headcommand {\gdef \appendixtotalframenumber {9}}}
